{
  "images" : [
    {
      "idiom" : "universal",
      "filename" : "—Pngtree—hockey stick icon for your_4856410.jpeg",
      "scale" : "1x"
    },
    {
      "idiom" : "universal",
      "filename" : "—Pngtree—hockey stick icon for your_4856410-1.jpeg",
      "scale" : "2x"
    },
    {
      "idiom" : "universal",
      "filename" : "—Pngtree—hockey stick icon for your_4856410-2.jpeg",
      "scale" : "3x"
    }
  ],
  "info" : {
    "version" : 1,
    "author" : "xcode"
  }
}